{
  "appId": "ch.bernardo.shop",
  "appName": "bernardo-shop",
  "bundledWebRuntime": false,
  "npmClient": "npm",
  "webDir": "build",
  "plugins": {
    "SplashScreen": {
      "launchShowDuration": 0
    }
  },
  "cordova": {},
  "linuxAndroidStudioPath": "/home/icare/Documents/android-studio/bin/studio.sh"
}
